BEGIN;
CREATE SCHEMA faker;
CREATE EXTENSION faker SCHEMA faker CASCADE;
NOTICE:  installing required extension "plpython3u"
SET faker.autoinit=False;
SELECT faker.name() IS NULL;
WARNING:  faker is not initialized.
HINT:  Use SELECT faker.faker(); first or set faker.autoinit to True.
 ?column? 
----------
 t
(1 row)

SET faker.autoinit=True;
SELECT faker.name() IS NOT NULL;
 ?column? 
----------
 t
(1 row)

SELECT faker.faker();
 faker 
-------
 t
(1 row)

SELECT faker.faker(ARRAY['de_DE','jp_JP']);
 faker 
-------
 t
(1 row)

SELECT faker.faker('fr_FR');
 faker 
-------
 t
(1 row)

SELECT pg_typeof(faker.name()) = 'TEXT'::REGTYPE;
 ?column? 
----------
 t
(1 row)

SELECT count(DISTINCT name) FROM faker._functions();
 count 
-------
   948
(1 row)

ROLLBACK;
